/Users/kennitromero/NetBeansProjects/EvaluationHibernate/src/main/java/entities/SeguridadSocial.java
/Users/kennitromero/NetBeansProjects/EvaluationHibernate/src/main/java/entities/Empleado.java
/Users/kennitromero/NetBeansProjects/EvaluationHibernate/src/main/java/entities/Reunion.java
/Users/kennitromero/NetBeansProjects/EvaluationHibernate/src/main/java/test/NewClass.java
/Users/kennitromero/NetBeansProjects/EvaluationHibernate/src/main/java/entities/Pago.java
